<svg xmlns="http://www.w3.org/2000/svg" viewBox="0 0 20 18">
  <defs>
    <style>
      .cls-1 {
        fill: #fff;
      }
    </style>
  </defs>
  <g id="menu-button-of-three-horizontal-lines" transform="translate(0 -6)">
    <path id="Path_3" data-name="Path 3" class="cls-1" d="M18.065,6H1.935a1.929,1.929,0,1,0,0,3.857H18.065a1.929,1.929,0,1,0,0-3.857Z" transform="translate(0 0)"/>
    <path id="Path_4" data-name="Path 4" class="cls-1" d="M18.065,50H1.935a1.929,1.929,0,1,0,0,3.857H18.065a1.929,1.929,0,1,0,0-3.857Z" transform="translate(0 -36.929)"/>
    <path id="Path_5" data-name="Path 5" class="cls-1" d="M18.065,94H1.935a1.929,1.929,0,1,0,0,3.857H18.065a1.929,1.929,0,1,0,0-3.857Z" transform="translate(0 -73.857)"/>
  </g>
</svg>
