<svg xmlns="http://www.w3.org/2000/svg" viewBox="0 0 20 25">
  <defs>
    <style>
      .cls-1 {
        fill: #347df1;
      }
    </style>
  </defs>
  <path id="shopping-bag" class="cls-1" d="M63.013,10.277,61.937-3.261a2.163,2.163,0,0,0-2.146-1.992H58.125A5.118,5.118,0,0,0,53.025-10a5.126,5.126,0,0,0-5.1,4.746H46.255a2.162,2.162,0,0,0-2.146,1.988L43.038,10.277A4.385,4.385,0,0,0,47.41,15H58.641a4.385,4.385,0,0,0,4.371-4.723ZM49.081-.465A1.175,1.175,0,0,0,50.255-1.64V-2.9H55.8V-1.64A1.175,1.175,0,0,0,56.97-.465,1.175,1.175,0,0,0,58.143-1.64V-2.9h1.47l1.061,13.365a2.036,2.036,0,0,1-2.028,2.195H47.41a2.036,2.036,0,0,1-2.028-2.195L46.438-2.9h1.47V-1.64A1.175,1.175,0,0,0,49.081-.465Zm1.2-4.789a2.771,2.771,0,0,1,2.742-2.4,2.771,2.771,0,0,1,2.742,2.4Z" transform="translate(-43.025 10)"/>
</svg>
